[
	{
		"name": "Archive Interaction Logs",
		"file": "archiveInteractionLogs.js",
		"trigger": "0 0 * * *"
	},
	{
		"name": "Post Stats",
		"file": "postStats.js",
		"trigger": "*/30 * * * *"
	},
	{
		"name": "Archive Logs",
		"file": "archiveLogs.js",
		"trigger": "0 0 * * *"
	}
]